{
    "maps": [
        {
            "fileName": "maps/desert_to_home.json",
            "height": 800,
            "width": 800,
            "x": 3968,
            "y": 992
        },
        {
            "fileName": "maps/desert_bridge.json",
            "height": 800,
            "width": 800,
            "x": 3967,
            "y": 208
        },
        {
            "fileName": "maps/coffee-cup-skit.json",
            "height": 240,
            "width": 3200,
            "x": 3984,
            "y": 2064
        },
        {
            "fileName": "maps/scut16.json",
            "height": 800,
            "width": 800,
            "x": 4768,
            "y": 208
        },
        {
            "fileName": "maps/platform-level.json",
            "height": 4000,
            "width": 4000,
            "x": 5552,
            "y": -2976
        },
        {
            "fileName": "maps/underworld/dungeon.json",
            "height": 800,
            "width": 800,
            "x": 9551,
            "y": 224
        }
    ],
    "onlyShowAdjacentMaps": false,
    "type": "world"
}
