{ "compressionlevel":-1,
 "editorsettings":
    {
     "export":
        {
         "target":"."
        }
    },
 "height":50,
 "infinite":false,
 "layers":[
        {
         "data":[11, 12, 11, 12, 15, 16, 13, 14, 13, 14, 55, 56, 13, 14, 55, 56, 11, 12, 11, 12, 13, 14, 15, 16, 15, 16, 15, 16, 15, 16, 53, 54, 11, 12, 55, 56, 53, 54, 55, 56, 55, 56, 11, 12, 13, 14, 11, 12, 13, 14, 31, 32, 31, 32, 35, 36, 33, 34, 33, 34, 75, 76, 33, 34, 75, 76, 31, 32, 31, 32, 33, 34, 35, 36, 35, 36, 35, 36, 35, 36, 73, 74, 31, 32, 75, 76, 73, 74, 75, 76, 75, 76, 31, 32, 33, 34, 31, 32, 33, 34, 53, 54, 15, 16, 55, 56, 11, 12, 55, 56, 55, 56, 11, 12, 55, 56, 11, 12, 13, 14, 55, 56, 55, 56, 55, 56, 15, 16, 13, 14, 13, 14, 15, 16, 53, 54, 13, 14, 53, 54, 13, 14, 55, 56, 15, 16, 15, 16, 55, 56, 73, 74, 35, 36, 75, 76, 31, 32, 75, 76, 75, 76, 31, 32, 75, 76, 31, 32, 33, 34, 75, 76, 75, 76, 75, 76, 35, 36, 33, 34, 33, 34, 35, 36, 73, 74, 33, 34, 73, 74, 33, 34, 75, 76, 35, 36, 35, 36, 75, 76, 13, 14, 15, 16, 11, 12, 53, 54, 15, 16, 11, 12, 55, 56, 55, 56, 15, 16, 13, 14, 15, 16, 13, 14, 53, 54, 13, 14, 13, 14, 15, 16, 55, 56, 13, 14, 15, 16, 55, 56, 53, 54, 15, 16, 11, 12, 55, 56, 55, 56, 33, 34, 35, 36, 31, 32, 73, 74, 35, 36, 31, 32, 75, 76, 75, 76, 35, 36, 33, 34, 35, 36, 33, 34, 73, 74, 33, 34, 33, 34, 35, 36, 75, 76, 33, 34, 35, 36, 75, 76, 73, 74, 35, 36, 31, 32, 75, 76, 75, 76, 15, 16, 55, 56, 13, 14, 15, 16, 11, 12, 53, 54, 11, 12, 53, 54, 11, 12, 13, 14, 11, 12, 15, 16, 13, 14, 15, 16, 13, 14, 53, 54, 11, 12, 11, 12, 55, 56, 55, 56, 13, 14, 55, 56, 15, 16, 11, 12, 55, 56, 35, 36, 75, 76, 33, 34, 35, 36, 31, 32, 73, 74, 31, 32, 73, 74, 31, 32, 33, 34, 31, 32, 35, 36, 33, 34, 35, 36, 33, 34, 73, 74, 31, 32, 31, 32, 75, 76, 75, 76, 33, 34, 75, 76, 35, 36, 31, 32, 75, 76, 11, 12, 11, 12, 15, 16, 53, 54, 13, 14, 13, 14, 53, 54, 13, 14, 13, 14, 55, 56, 11, 12, 15, 16, 11, 12, 15, 16, 15, 16, 53, 54, 13, 14, 11, 12, 55, 56, 15, 16, 11, 12, 13, 14, 15, 16, 11, 12, 13, 14, 31, 32, 31, 32, 35, 36, 73, 74, 33, 34, 33, 34, 73, 74, 33, 34, 33, 34, 75, 76, 31, 32, 35, 36, 31, 32, 35, 36, 35, 36, 73, 74, 33, 34, 31, 32, 75, 76, 35, 36, 31, 32, 33, 34, 35, 36, 31, 32, 33, 34, 15, 16, 55, 56, 13, 14, 53, 54, 11, 12, 15, 16, 11, 12, 11, 12, 53, 54, 11, 12, 55, 56, 13, 14, 55, 56, 53, 54, 55, 56, 55, 56, 55, 56, 53, 54, 15, 16, 11, 12, 55, 56, 15, 16, 15, 16, 11, 12, 15, 16, 35, 36, 75, 76, 33, 34, 73, 74, 31, 32, 35, 36, 31, 32, 31, 32, 73, 74, 31, 32, 75, 76, 33, 34, 75, 76, 73, 74, 75, 76, 75, 76, 75, 76, 73, 74, 35, 36, 31, 32, 75, 76, 35, 36, 35, 36, 31, 32, 35, 36, 0, 0, 0, 0, 0, 0, 0, 0, 0, 0, 0, 0, 0, 0, 0, 0, 0, 0, 0, 0, 0, 0, 0, 0, 0, 0, 0, 0, 0, 0, 0, 0, 0, 0, 0, 0, 0, 0, 0, 0, 0, 0, 0, 0, 0, 0, 0, 0, 0, 0, 0, 0, 0, 0, 0, 0, 0, 0, 0, 0, 0, 0, 0, 0, 0, 0, 0, 0, 0, 0, 0, 0, 0, 0, 0, 0, 0, 0, 0, 0, 0, 0, 0, 0, 0, 0, 0, 0, 0, 0, 0, 0, 0, 0, 0, 0, 0, 0, 0, 0, 0, 0, 0, 0, 0, 0, 0, 0, 0, 0, 0, 0, 0, 0, 0, 0, 0, 0, 0, 0, 0, 0, 0, 0, 0, 0, 0, 0, 0, 0, 0, 0, 0, 0, 0, 0, 0, 0, 0, 0, 0, 0, 0, 0, 0, 0, 0, 0, 0, 0, 0, 0, 0, 0, 0, 0, 0, 0, 0, 0, 0, 0, 0, 0, 0, 0, 0, 0, 0, 0, 0, 0, 0, 0, 0, 0, 0, 0, 0, 0, 0, 0, 0, 0, 0, 0, 0, 0, 0, 0, 0, 0, 0, 0, 0, 0, 0, 0, 0, 0, 0, 0, 0, 0, 0, 0, 0, 0, 0, 0, 0, 0, 0, 0, 0, 0, 0, 0, 0, 0, 0, 0, 0, 0, 0, 0, 0, 0, 0, 0, 0, 0, 0, 0, 0, 0, 0, 0, 0, 0, 0, 0, 0, 0, 0, 0, 0, 0, 0, 0, 0, 0, 0, 0, 0, 0, 0, 0, 0, 0, 0, 0, 0, 0, 0, 0, 0, 0, 0, 0, 0, 0, 0, 0, 0, 0, 0, 0, 0, 0, 395, 396, 397, 436, 0, 0, 0, 0, 0, 0, 0, 0, 0, 0, 0, 0, 0, 0, 0, 0, 0, 0, 0, 0, 0, 0, 0, 0, 0, 0, 0, 0, 0, 0, 0, 0, 0, 0, 0, 0, 0, 0, 0, 0, 0, 0, 0, 0, 0, 0, 415, 395, 396, 397, 0, 0, 0, 0, 0, 0, 0, 0, 0, 0, 0, 0, 0, 0, 0, 0, 0, 0, 0, 0, 0, 0, 0, 0, 0, 0, 0, 0, 0, 0, 0, 0, 0, 0, 0, 0, 0, 0, 0, 0, 0, 0, 0, 0, 0, 0, 435, 415, 416, 417, 0, 0, 0, 0, 0, 0, 0, 0, 0, 0, 0, 0, 0, 0, 0, 0, 0, 0, 0, 0, 0, 0, 0, 0, 0, 0, 0, 0, 0, 0, 0, 0, 0, 0, 0, 0, 0, 0, 0, 0, 0, 0, 0, 0, 0, 0, 436, 435, 436, 437, 0, 0, 0, 0, 0, 0, 0, 0, 0, 0, 0, 0, 0, 0, 0, 0, 0, 0, 0, 0, 0, 0, 0, 0, 0, 0, 0, 0, 0, 0, 0, 0, 0, 0, 0, 0, 0, 0, 0, 0, 0, 0, 0, 0, 0, 0, 476, 476, 476, 476, 0, 0, 0, 0, 0, 0, 0, 0, 0, 0, 0, 0, 0, 0, 0, 0, 0, 0, 0, 0, 0, 0, 0, 0, 0, 0, 0, 0, 0, 0, 0, 0, 0, 0, 0, 0, 0, 0, 0, 0, 0, 0, 0, 0, 0, 0, 0, 0, 0, 0, 0, 0, 0, 0, 0, 0, 0, 0, 0, 0, 0, 0, 0, 0, 0, 0, 0, 0, 0, 0, 0, 0, 0, 0, 0, 0, 0, 0, 0, 0, 0, 0, 0, 0, 0, 0, 0, 0, 0, 0, 0, 0, 0, 0, 0, 0, 0, 0, 0, 0, 0, 0, 0, 0, 0, 0, 0, 0, 0, 0, 0, 0, 0, 0, 0, 0, 0, 0, 0, 0, 0, 0, 0, 0, 0, 0, 0, 0, 0, 0, 0, 0, 0, 0, 0, 0, 0, 0, 0, 0, 0, 0, 0, 0, 0, 0, 0, 0, 0, 0, 0, 0, 0, 0, 0, 0, 0, 0, 0, 0, 0, 0, 0, 0, 0, 0, 0, 0, 0, 0, 0, 0, 0, 0, 0, 0, 0, 0, 0, 0, 0, 0, 0, 0, 0, 0, 0, 0, 0, 0, 0, 0, 0, 0, 0, 0, 0, 0, 0, 0, 0, 0, 0, 0, 0, 0, 0, 0, 0, 0, 0, 0, 0, 0, 0, 0, 0, 0, 0, 0, 0, 0, 0, 0, 0, 0, 0, 0, 0, 0, 0, 0, 0, 0, 0, 0, 0, 0, 0, 0, 0, 0, 0, 0, 0, 0, 0, 0, 0, 0, 0, 0, 0, 0, 0, 0, 0, 0, 0, 0, 0, 0, 0, 0, 0, 0, 15, 16, 11, 12, 55, 56, 13, 14, 11, 12, 15, 16, 15, 16, 11, 12, 53, 54, 55, 56, 55, 56, 13, 14, 53, 54, 53, 54, 15, 16, 53, 54, 11, 12, 13, 14, 13, 14, 55, 56, 55, 56, 53, 54, 11, 12, 13, 14, 13, 14, 35, 36, 31, 32, 75, 76, 33, 34, 31, 32, 35, 36, 35, 36, 31, 32, 73, 74, 75, 76, 75, 76, 33, 34, 73, 74, 73, 74, 35, 36, 73, 74, 31, 32, 33, 34, 33, 34, 75, 76, 75, 76, 73, 74, 31, 32, 33, 34, 33, 34, 13, 14, 53, 54, 13, 14, 15, 16, 11, 12, 13, 14, 13, 14, 11, 12, 53, 54, 13, 14, 53, 54, 13, 14, 53, 54, 11, 12, 11, 12, 55, 56, 15, 16, 13, 14, 15, 16, 11, 12, 55, 56, 11, 12, 53, 54, 11, 12, 13, 14, 33, 34, 73, 74, 33, 34, 35, 36, 31, 32, 33, 34, 33, 34, 31, 32, 73, 74, 33, 34, 73, 74, 33, 34, 73, 74, 31, 32, 31, 32, 75, 76, 35, 36, 33, 34, 35, 36, 31, 32, 75, 76, 31, 32, 73, 74, 31, 32, 33, 34, 55, 56, 55, 56, 13, 14, 53, 54, 55, 56, 55, 56, 15, 16, 15, 16, 11, 12, 53, 54, 53, 54, 15, 16, 11, 12, 15, 16, 15, 16, 15, 16, 55, 56, 13, 14, 13, 14, 13, 14, 11, 12, 11, 12, 55, 56, 53, 54, 53, 54, 75, 76, 75, 76, 33, 34, 73, 74, 75, 76, 75, 76, 35, 36, 35, 36, 31, 32, 73, 74, 73, 74, 35, 36, 31, 32, 35, 36, 35, 36, 35, 36, 75, 76, 33, 34, 33, 34, 33, 34, 31, 32, 31, 32, 75, 76, 73, 74, 73, 74, 15, 16, 13, 14, 15, 16, 13, 14, 55, 56, 13, 14, 53, 54, 15, 16, 55, 56, 55, 56, 53, 54, 15, 16, 55, 56, 13, 14, 13, 14, 53, 54, 11, 12, 11, 12, 11, 12, 55, 56, 53, 54, 15, 16, 53, 54, 11, 12, 55, 56, 35, 36, 33, 34, 35, 36, 33, 34, 75, 76, 33, 34, 73, 74, 35, 36, 75, 76, 75, 76, 73, 74, 35, 36, 75, 76, 33, 34, 33, 34, 73, 74, 31, 32, 31, 32, 31, 32, 75, 76, 73, 74, 35, 36, 73, 74, 31, 32, 75, 76, 53, 54, 15, 16, 55, 56, 53, 54, 11, 12, 55, 56, 13, 14, 55, 56, 15, 16, 53, 54, 13, 14, 15, 16, 15, 16, 53, 54, 55, 56, 11, 12, 55, 56, 13, 14, 53, 54, 13, 14, 15, 16, 55, 56, 55, 56, 13, 14, 55, 56, 73, 74, 35, 36, 75, 76, 73, 74, 31, 32, 75, 76, 33, 34, 75, 76, 35, 36, 73, 74, 33, 34, 35, 36, 35, 36, 73, 74, 75, 76, 31, 32, 75, 76, 33, 34, 73, 74, 33, 34, 35, 36, 75, 76, 75, 76, 33, 34, 75, 76, 55, 56, 53, 54, 13, 14, 53, 54, 55, 56, 15, 16, 15, 16, 53, 54, 11, 12, 13, 14, 55, 56, 13, 14, 55, 56, 53, 54, 55, 56, 15, 16, 13, 14, 53, 54, 13, 14, 13, 14, 55, 56, 11, 12, 11, 12, 13, 14, 15, 16, 75, 76, 73, 74, 33, 34, 73, 74, 75, 76, 35, 36, 35, 36, 73, 74, 31, 32, 33, 34, 75, 76, 33, 34, 75, 76, 73, 74, 75, 76, 35, 36, 33, 34, 73, 74, 33, 34, 33, 34, 75, 76, 31, 32, 31, 32, 33, 34, 35, 36, 11, 12, 55, 56, 11, 12, 13, 14, 53, 54, 53, 54, 11, 12, 13, 14, 11, 12, 11, 12, 15, 16, 53, 54, 13, 14, 15, 16, 15, 16, 53, 54, 13, 14, 55, 56, 53, 54, 55, 56, 11, 12, 13, 14, 15, 16, 53, 54, 53, 54, 31, 32, 75, 76, 31, 32, 33, 34, 73, 74, 73, 74, 31, 32, 33, 34, 31, 32, 31, 32, 35, 36, 73, 74, 33, 34, 35, 36, 35, 36, 73, 74, 33, 34, 75, 76, 73, 74, 75, 76, 31, 32, 33, 34, 35, 36, 73, 74, 73, 74, 15, 16, 55, 56, 55, 56, 53, 54, 15, 16, 55, 56, 13, 14, 15, 16, 11, 12, 13, 14, 11, 12, 11, 12, 15, 16, 55, 56, 11, 12, 55, 56, 55, 56, 53, 54, 11, 12, 11, 12, 55, 56, 53, 54, 11, 12, 55, 56, 13, 14, 35, 36, 75, 76, 75, 76, 73, 74, 35, 36, 75, 76, 33, 34, 35, 36, 31, 32, 33, 34, 31, 32, 31, 32, 35, 36, 75, 76, 31, 32, 75, 76, 75, 76, 73, 74, 31, 32, 31, 32, 75, 76, 73, 74, 31, 32, 75, 76, 33, 34, 53, 54, 53, 54, 55, 56, 13, 14, 11, 12, 13, 14, 55, 56, 55, 56, 55, 56, 11, 12, 55, 56, 13, 14, 55, 56, 13, 14, 53, 54, 55, 56, 53, 54, 53, 54, 53, 54, 55, 56, 11, 12, 13, 14, 53, 54, 55, 56, 55, 56, 73, 74, 73, 74, 75, 76, 33, 34, 31, 32, 33, 34, 75, 76, 75, 76, 75, 76, 31, 32, 75, 76, 33, 34, 75, 76, 33, 34, 73, 74, 75, 76, 73, 74, 73, 74, 73, 74, 75, 76, 31, 32, 33, 34, 73, 74, 75, 76, 75, 76, 55, 56, 55, 56, 53, 54, 53, 54, 55, 56, 13, 14, 55, 56, 15, 16, 55, 56, 15, 16, 53, 54, 15, 16, 11, 12, 53, 54, 13, 14, 55, 56, 11, 12, 13, 14, 55, 56, 53, 54, 15, 16, 13, 14, 13, 14, 11, 12, 13, 14, 75, 76, 75, 76, 73, 74, 73, 74, 75, 76, 33, 34, 75, 76, 35, 36, 75, 76, 35, 36, 73, 74, 35, 36, 31, 32, 73, 74, 33, 34, 75, 76, 31, 32, 33, 34, 75, 76, 73, 74, 35, 36, 33, 34, 33, 34, 31, 32, 33, 34, 55, 56, 53, 54, 53, 54, 13, 14, 11, 12, 53, 54, 11, 12, 53, 54, 11, 12, 11, 12, 55, 56, 11, 12, 55, 56, 55, 56, 11, 12, 55, 56, 13, 14, 13, 14, 11, 12, 11, 12, 15, 16, 13, 14, 53, 54, 15, 16, 15, 16, 75, 76, 73, 74, 73, 74, 33, 34, 31, 32, 73, 74, 31, 32, 73, 74, 31, 32, 31, 32, 75, 76, 31, 32, 75, 76, 75, 76, 31, 32, 75, 76, 33, 34, 33, 34, 31, 32, 31, 32, 35, 36, 33, 34, 73, 74, 35, 36, 35, 36, 55, 56, 11, 12, 13, 14, 11, 12, 55, 56, 55, 56, 11, 12, 15, 16, 53, 54, 13, 14, 53, 54, 53, 54, 55, 56, 15, 16, 55, 56, 11, 12, 55, 56, 11, 12, 13, 14, 15, 16, 11, 12, 15, 16, 13, 14, 53, 54, 55, 56],
         "height":50,
         "id":1,
         "name":"Main",
         "opacity":1,
         "type":"tilelayer",
         "visible":true,
         "width":50,
         "x":0,
         "y":0
        }, 
        {
         "draworder":"topdown",
         "id":2,
         "name":"Platforms",
         "objects":[
                {
                 "height":64,
                 "id":1,
                 "name":"112_192",
                 "rotation":0,
                 "type":"cobblestone",
                 "visible":true,
                 "width":64,
                 "x":368,
                 "y":192
                }, 
                {
                 "height":64,
                 "id":2,
                 "name":"112_192",
                 "rotation":0,
                 "type":"",
                 "visible":true,
                 "width":64,
                 "x":368,
                 "y":368
                }],
         "opacity":1,
         "type":"objectgroup",
         "visible":true,
         "x":0,
         "y":0
        }],
 "nextlayerid":3,
 "nextobjectid":3,
 "orientation":"orthogonal",
 "renderorder":"right-down",
 "tiledversion":"1.4.3",
 "tileheight":16,
 "tilesets":[
        {
         "columns":20,
         "firstgid":1,
         "image":"..\/tilesets\/browserquestextrude.png",
         "imageheight":1764,
         "imagewidth":360,
         "margin":1,
         "name":"browserquestextrude",
         "spacing":2,
         "tilecount":1960,
         "tileheight":16,
         "tilewidth":16
        }],
 "tilewidth":16,
 "type":"map",
 "version":1.4,
 "width":50
}